…
``` r
by_image <- group_by(dfmm, image, plant, pet.angle)
summarise(by_image, mean.angle = mean(pet.angle, na.rm = TRUE))
```

    ## `summarise()` has grouped output by 'image', 'plant'. You can override using
    ## the `.groups` argument.

    ## # A tibble: 2,820 × 4
    ## # Groups:   image, plant [2,820]
    ##    image plant   pet.angle mean.angle
    ##    <int> <chr>       <dbl>      <dbl>
    ##  1     5 Plant01      15.5       15.5
    ##  2     5 Plant02      13.9       13.9
    ##  3     6 Plant01      15.5       15.5
    ##  4     6 Plant02      13.9       13.9
    ##  5     7 Plant01      15.5       15.5
    ##  6     7 Plant02      13.9       13.9
    ##  7     8 Plant01      15.5       15.5
    ##  8     8 Plant02      13.9       13.9
    ##  9     9 Plant01      15.5       15.5
    ## 10     9 Plant02      13.9       13.9
    ## # … with 2,810 more rows
